[0.012s] Invoking command in '/home/nacho/git/simulation/ROS2/hexsar_ws/build/one_leg': CMAKE_PREFIX_PATH=/home/nacho/git/simulation/ROS2/hexsar_ws/install/robot_state_publisher:/home/nacho/git/simulation/ROS2/hexsar_ws/install/one_leg:/home/nacho/git/simulation/ROS2/hexsar_ws/install/one_leg_simulation:/opt/ros/humble PS1=\u \[\033[32m\]\w\[\033[33m\]$(parse_git_branch)\[\033[00m\] $ /usr/bin/cmake --build /home/nacho/git/simulation/ROS2/hexsar_ws/build/one_leg -- -j4 -l4
[0.066s] Invoked command in '/home/nacho/git/simulation/ROS2/hexsar_ws/build/one_leg' returned '0': CMAKE_PREFIX_PATH=/home/nacho/git/simulation/ROS2/hexsar_ws/install/robot_state_publisher:/home/nacho/git/simulation/ROS2/hexsar_ws/install/one_leg:/home/nacho/git/simulation/ROS2/hexsar_ws/install/one_leg_simulation:/opt/ros/humble PS1=\u \[\033[32m\]\w\[\033[33m\]$(parse_git_branch)\[\033[00m\] $ /usr/bin/cmake --build /home/nacho/git/simulation/ROS2/hexsar_ws/build/one_leg -- -j4 -l4
[0.097s] Invoking command in '/home/nacho/git/simulation/ROS2/hexsar_ws/build/one_leg': CMAKE_PREFIX_PATH=/home/nacho/git/simulation/ROS2/hexsar_ws/install/robot_state_publisher:/home/nacho/git/simulation/ROS2/hexsar_ws/install/one_leg:/home/nacho/git/simulation/ROS2/hexsar_ws/install/one_leg_simulation:/opt/ros/humble PS1=\u \[\033[32m\]\w\[\033[33m\]$(parse_git_branch)\[\033[00m\] $ /usr/bin/cmake --install /home/nacho/git/simulation/ROS2/hexsar_ws/build/one_leg
[0.105s] -- Install configuration: ""
[0.105s] -- Up-to-date: /home/nacho/git/simulation/ROS2/hexsar_ws/install/one_leg/share/one_leg/launch
[0.105s] -- Up-to-date: /home/nacho/git/simulation/ROS2/hexsar_ws/install/one_leg/share/one_leg/launch/display.launch.py
[0.105s] -- Up-to-date: /home/nacho/git/simulation/ROS2/hexsar_ws/install/one_leg/share/one_leg/meshes
[0.105s] -- Up-to-date: /home/nacho/git/simulation/ROS2/hexsar_ws/install/one_leg/share/one_leg/meshes/body_complete.stl
[0.106s] -- Up-to-date: /home/nacho/git/simulation/ROS2/hexsar_ws/install/one_leg/share/one_leg/meshes/coxa_R.stl
[0.106s] -- Up-to-date: /home/nacho/git/simulation/ROS2/hexsar_ws/install/one_leg/share/one_leg/meshes/femur_R.stl
[0.106s] -- Up-to-date: /home/nacho/git/simulation/ROS2/hexsar_ws/install/one_leg/share/one_leg/meshes/tibia_R.stl
[0.106s] -- Up-to-date: /home/nacho/git/simulation/ROS2/hexsar_ws/install/one_leg/share/one_leg/rviz
[0.106s] -- Up-to-date: /home/nacho/git/simulation/ROS2/hexsar_ws/install/one_leg/share/one_leg/rviz/urdf.rviz
[0.106s] -- Up-to-date: /home/nacho/git/simulation/ROS2/hexsar_ws/install/one_leg/share/one_leg/urdf
[0.106s] -- Up-to-date: /home/nacho/git/simulation/ROS2/hexsar_ws/install/one_leg/share/one_leg/urdf/one_leg.config
[0.107s] -- Installing: /home/nacho/git/simulation/ROS2/hexsar_ws/install/one_leg/share/one_leg/urdf/one_leg.urdf
[0.107s] -- Up-to-date: /home/nacho/git/simulation/ROS2/hexsar_ws/install/one_leg/share/one_leg/urdf/one_leg.xacro
[0.107s] -- Installing: /home/nacho/git/simulation/ROS2/hexsar_ws/install/one_leg/share/one_leg/urdf/one_leg.gazebo
[0.107s] -- Up-to-date: /home/nacho/git/simulation/ROS2/hexsar_ws/install/one_leg/share/ament_index/resource_index/package_run_dependencies/one_leg
[0.107s] -- Up-to-date: /home/nacho/git/simulation/ROS2/hexsar_ws/install/one_leg/share/ament_index/resource_index/parent_prefix_path/one_leg
[0.107s] -- Up-to-date: /home/nacho/git/simulation/ROS2/hexsar_ws/install/one_leg/share/one_leg/environment/ament_prefix_path.sh
[0.107s] -- Up-to-date: /home/nacho/git/simulation/ROS2/hexsar_ws/install/one_leg/share/one_leg/environment/ament_prefix_path.dsv
[0.107s] -- Up-to-date: /home/nacho/git/simulation/ROS2/hexsar_ws/install/one_leg/share/one_leg/environment/path.sh
[0.107s] -- Up-to-date: /home/nacho/git/simulation/ROS2/hexsar_ws/install/one_leg/share/one_leg/environment/path.dsv
[0.107s] -- Up-to-date: /home/nacho/git/simulation/ROS2/hexsar_ws/install/one_leg/share/one_leg/local_setup.bash
[0.107s] -- Up-to-date: /home/nacho/git/simulation/ROS2/hexsar_ws/install/one_leg/share/one_leg/local_setup.sh
[0.108s] -- Up-to-date: /home/nacho/git/simulation/ROS2/hexsar_ws/install/one_leg/share/one_leg/local_setup.zsh
[0.108s] -- Up-to-date: /home/nacho/git/simulation/ROS2/hexsar_ws/install/one_leg/share/one_leg/local_setup.dsv
[0.109s] -- Installing: /home/nacho/git/simulation/ROS2/hexsar_ws/install/one_leg/share/one_leg/package.dsv
[0.113s] -- Up-to-date: /home/nacho/git/simulation/ROS2/hexsar_ws/install/one_leg/share/ament_index/resource_index/packages/one_leg
[0.113s] -- Up-to-date: /home/nacho/git/simulation/ROS2/hexsar_ws/install/one_leg/share/one_leg/cmake/one_legConfig.cmake
[0.114s] -- Up-to-date: /home/nacho/git/simulation/ROS2/hexsar_ws/install/one_leg/share/one_leg/cmake/one_legConfig-version.cmake
[0.114s] -- Up-to-date: /home/nacho/git/simulation/ROS2/hexsar_ws/install/one_leg/share/one_leg/package.xml
[0.115s] Invoked command in '/home/nacho/git/simulation/ROS2/hexsar_ws/build/one_leg' returned '0': CMAKE_PREFIX_PATH=/home/nacho/git/simulation/ROS2/hexsar_ws/install/robot_state_publisher:/home/nacho/git/simulation/ROS2/hexsar_ws/install/one_leg:/home/nacho/git/simulation/ROS2/hexsar_ws/install/one_leg_simulation:/opt/ros/humble PS1=\u \[\033[32m\]\w\[\033[33m\]$(parse_git_branch)\[\033[00m\] $ /usr/bin/cmake --install /home/nacho/git/simulation/ROS2/hexsar_ws/build/one_leg
