Invoking command in '/home/nacho/git/simulation/ROS2/hexsar_ws/build/one_leg': CMAKE_PREFIX_PATH=/home/nacho/git/simulation/ROS2/hexsar_ws/install/robot_state_publisher:/home/nacho/git/simulation/ROS2/hexsar_ws/install/one_leg:/home/nacho/git/simulation/ROS2/hexsar_ws/install/one_leg_simulation:/opt/ros/humble PS1=\u \[\033[32m\]\w\[\033[33m\]$(parse_git_branch)\[\033[00m\] $ /usr/bin/cmake --build /home/nacho/git/simulation/ROS2/hexsar_ws/build/one_leg -- -j4 -l4
Invoked command in '/home/nacho/git/simulation/ROS2/hexsar_ws/build/one_leg' returned '0': CMAKE_PREFIX_PATH=/home/nacho/git/simulation/ROS2/hexsar_ws/install/robot_state_publisher:/home/nacho/git/simulation/ROS2/hexsar_ws/install/one_leg:/home/nacho/git/simulation/ROS2/hexsar_ws/install/one_leg_simulation:/opt/ros/humble PS1=\u \[\033[32m\]\w\[\033[33m\]$(parse_git_branch)\[\033[00m\] $ /usr/bin/cmake --build /home/nacho/git/simulation/ROS2/hexsar_ws/build/one_leg -- -j4 -l4
Invoking command in '/home/nacho/git/simulation/ROS2/hexsar_ws/build/one_leg': CMAKE_PREFIX_PATH=/home/nacho/git/simulation/ROS2/hexsar_ws/install/robot_state_publisher:/home/nacho/git/simulation/ROS2/hexsar_ws/install/one_leg:/home/nacho/git/simulation/ROS2/hexsar_ws/install/one_leg_simulation:/opt/ros/humble PS1=\u \[\033[32m\]\w\[\033[33m\]$(parse_git_branch)\[\033[00m\] $ /usr/bin/cmake --install /home/nacho/git/simulation/ROS2/hexsar_ws/build/one_leg
Invoked command in '/home/nacho/git/simulation/ROS2/hexsar_ws/build/one_leg' returned '0': CMAKE_PREFIX_PATH=/home/nacho/git/simulation/ROS2/hexsar_ws/install/robot_state_publisher:/home/nacho/git/simulation/ROS2/hexsar_ws/install/one_leg:/home/nacho/git/simulation/ROS2/hexsar_ws/install/one_leg_simulation:/opt/ros/humble PS1=\u \[\033[32m\]\w\[\033[33m\]$(parse_git_branch)\[\033[00m\] $ /usr/bin/cmake --install /home/nacho/git/simulation/ROS2/hexsar_ws/build/one_leg
