-- Install configuration: ""
-- Up-to-date: /home/nacho/git/simulation/ROS2/hexsar_ws/install/one_leg/share/one_leg/launch
-- Up-to-date: /home/nacho/git/simulation/ROS2/hexsar_ws/install/one_leg/share/one_leg/launch/display.launch.py
-- Up-to-date: /home/nacho/git/simulation/ROS2/hexsar_ws/install/one_leg/share/one_leg/meshes
-- Up-to-date: /home/nacho/git/simulation/ROS2/hexsar_ws/install/one_leg/share/one_leg/meshes/body_complete.stl
-- Up-to-date: /home/nacho/git/simulation/ROS2/hexsar_ws/install/one_leg/share/one_leg/meshes/coxa_R.stl
-- Up-to-date: /home/nacho/git/simulation/ROS2/hexsar_ws/install/one_leg/share/one_leg/meshes/femur_R.stl
-- Up-to-date: /home/nacho/git/simulation/ROS2/hexsar_ws/install/one_leg/share/one_leg/meshes/tibia_R.stl
-- Up-to-date: /home/nacho/git/simulation/ROS2/hexsar_ws/install/one_leg/share/one_leg/rviz
-- Up-to-date: /home/nacho/git/simulation/ROS2/hexsar_ws/install/one_leg/share/one_leg/rviz/urdf.rviz
-- Up-to-date: /home/nacho/git/simulation/ROS2/hexsar_ws/install/one_leg/share/one_leg/urdf
-- Up-to-date: /home/nacho/git/simulation/ROS2/hexsar_ws/install/one_leg/share/one_leg/urdf/one_leg.config
-- Installing: /home/nacho/git/simulation/ROS2/hexsar_ws/install/one_leg/share/one_leg/urdf/one_leg.urdf
-- Up-to-date: /home/nacho/git/simulation/ROS2/hexsar_ws/install/one_leg/share/one_leg/urdf/one_leg.xacro
-- Installing: /home/nacho/git/simulation/ROS2/hexsar_ws/install/one_leg/share/one_leg/urdf/one_leg.gazebo
-- Up-to-date: /home/nacho/git/simulation/ROS2/hexsar_ws/install/one_leg/share/ament_index/resource_index/package_run_dependencies/one_leg
-- Up-to-date: /home/nacho/git/simulation/ROS2/hexsar_ws/install/one_leg/share/ament_index/resource_index/parent_prefix_path/one_leg
-- Up-to-date: /home/nacho/git/simulation/ROS2/hexsar_ws/install/one_leg/share/one_leg/environment/ament_prefix_path.sh
-- Up-to-date: /home/nacho/git/simulation/ROS2/hexsar_ws/install/one_leg/share/one_leg/environment/ament_prefix_path.dsv
-- Up-to-date: /home/nacho/git/simulation/ROS2/hexsar_ws/install/one_leg/share/one_leg/environment/path.sh
-- Up-to-date: /home/nacho/git/simulation/ROS2/hexsar_ws/install/one_leg/share/one_leg/environment/path.dsv
-- Up-to-date: /home/nacho/git/simulation/ROS2/hexsar_ws/install/one_leg/share/one_leg/local_setup.bash
-- Up-to-date: /home/nacho/git/simulation/ROS2/hexsar_ws/install/one_leg/share/one_leg/local_setup.sh
-- Up-to-date: /home/nacho/git/simulation/ROS2/hexsar_ws/install/one_leg/share/one_leg/local_setup.zsh
-- Up-to-date: /home/nacho/git/simulation/ROS2/hexsar_ws/install/one_leg/share/one_leg/local_setup.dsv
-- Installing: /home/nacho/git/simulation/ROS2/hexsar_ws/install/one_leg/share/one_leg/package.dsv
-- Up-to-date: /home/nacho/git/simulation/ROS2/hexsar_ws/install/one_leg/share/ament_index/resource_index/packages/one_leg
-- Up-to-date: /home/nacho/git/simulation/ROS2/hexsar_ws/install/one_leg/share/one_leg/cmake/one_legConfig.cmake
-- Up-to-date: /home/nacho/git/simulation/ROS2/hexsar_ws/install/one_leg/share/one_leg/cmake/one_legConfig-version.cmake
-- Up-to-date: /home/nacho/git/simulation/ROS2/hexsar_ws/install/one_leg/share/one_leg/package.xml
